{
  "api": "VOS Procedures",
  "list": [
    {
      "code": "BREV",
      "title": "Evacuatie in geval van brand",
      "description": "Wat de te doen bij evacuatie bij brand",
      "version": "0.0",
      "updated": "2010-01-07T19:58:42.949Z",
      "role": [
        {
          "name": "Stafmedewerker",
          "code": "STAF",
          "step": [
            {
              "title": "Wat te doen?",
              "description": "Hier komt een ruimere beschrijving",
              "action": [
                {
                  "code": "LIST",
                  "list": [
                    {
                      "title": "Blijf kalm!"
                    },
                    {
                      "title": "Laat alles liggen. Neem geen boekentassen mee."
                    },
                    {
                      "title": "Schakel alle apparaten, gas, drijfkracht uit."
                    },
                    {
                      "title": "Onderbreek alle telefoongesprekken, hou buitenlijnen vrij."
                    },
                    {
                      "title": "Sluit de vensters."
                    },
                    {
                      "title": "Laat het licht aan."
                    },
                    {
                      "title": "Verlaat het lokaal, controleer of alle aanwezige leerlingen deelnemen aan de evacuatie, doe de deur dicht (niet afsluiten). Vergeet je leerlingenlijst niet mee te nemen."
                    },
                    {
                      "title": "Volg de normale evacuatieweg naar de voorziene verzamelplaats."
                    },
                    {
                      "title": "Loop niet."
                    },
                    {
                      "title": "Neem nooit de lift."
                    },
                    {
                      "title": "Indien de weg versperd is, neem een andere vluchtweg (vb. nooduitgang)."
                    },
                    {
                      "title": "Ga met leerlingen naar de voorziene verzamelplaats en keer nooit terug."
                    },
                    {
                      "title": "Stel je leerlingen op en kijk of er geen afwezigen zijn door naamafroeping. Iedere verantwoordelijke dient een actueel gehouden lijst van de leerlingen die hem toevertrouwd zijn, te bezitten."
                    },
                    {
                      "title": "Deel je bevindingen mee aan de directeur en/of zijn afgevaardigde en/of de evacuatieverantwoordelijke."
                    },
                    {
                      "title": "Geef de naam van je klas, het nummer van het ontruimde lokaal en het aantal aanwezige leerlingen (+ afwezigen + vermisten) aan de evacuatieverantwoordelijke en/of de hulpdiensten."
                    },
                    {
                      "title": "Verzamel na controle, mits goedkeuring van de hulpdiensten, met je leerlingen op een veiligere plaats."
                    },
                    {
                      "title": "Blijf bij je leerlingen en wacht verdere instructies af van de hulpdiensten en/of evacuatieverantwoordelijke."
                    }
                  ]
                }
              ]
            }
          ]
        }
      ]
    },
    {
      "code": "BM",
      "title": "Brandmelding",
      "description": "Opmerken verdachte rook",
      "version": "0.0",
      "updated": "2010-01-07T19:58:42.949Z",
      "role": [
        {
          "name": "Stafmedewerker",
          "code": "STAF",
          "step": [
            {
              "title": "Directie",
              "description": "Verwittig de directie.",
              "action": [
                {
                  "code": "SMS",
                  "phoneNumber": "0486788723"
                },
                {
                  "code": "TEL",
                  "phoneNumber": "0486788723"
                }
              ]
            },
            {
              "title": "Secretariaat",
              "description": "Verwittig het secretariaat.",
              "action": [
                {
                  "code": "SMS",
                  "phoneNumber": "0486788723"
                },
                {
                  "code": "TEL",
                  "phoneNumber": "0486788723"
                }
              ]
            }
          ]
        },
        {
          "name": "Secretariaat",
          "code": "SE",
          "step": [
            {
              "title": "Verwittig de directie",
              "description": "Hier komt een ruimere beschrijving",
              "action": [
                {
                  "code": "SMS",
                  "phoneNumber": "0486788723"
                },
                {
                  "code": "TEL",
                  "phoneNumber": "0486788723"
                }
              ]
            },
            {
              "title": "Verwittig de verantwoordelijke beveiliging",
              "description": "Hier komt een ruimere beschrijving",
              "action": [
                {
                  "code": "SMS",
                  "phoneNumber": "0486788723"
                },
                {
                  "code": "TEL",
                  "phoneNumber": "0486788723"
                }
              ]
            }
          ]
        },
        {
          "name": "Verantwoordelijke beveiliging",
          "code": "VB",
          "step": [
            {
              "title": "Verwittig de brandweer",
              "description": "Hier komt een ruimere beschrijving",
              "action": [
                {
                  "code": "TEL",
                  "phoneNumber": "0486788723"
                }
              ]
            },
            {
              "title": "Wat te doen?",
              "description": "Hier komt een ruimere beschrijving",
              "action": [
                {
                  "code": "LIST",
                  "list": [
                    {
                      "title": "Volg de instructies van de operator"
                    },
                    {
                      "title": "Breng iedereen in veiligheid"
                    },
                    {
                      "title": "Schakel gas en drijfkracht uit"
                    },
                    {
                      "title": "Bestrijd de brand – enkel indien mogelijk dus zonder jezelf of anderen in gevaar te brengen"
                    },
                    {
                      "title": "Sluit ramen en deuren"
                    },
                    {
                      "title": "Blijf kort bij het/de slachtoffer(s)"
                    }
                  ]
                }
              ]
            }
          ]
        }
      ]
    },
	  {
      "code": "VVOP",
      "title": "Voedselvergiftiging",
      "description": "Wat de te doen bij voedselvergiftiging",
      "version": "0.0",
      "updated": "2010-01-07T19:58:42.949Z",
      "role": [
        {
          "name": "Stafmedewerker",
          "code": "STAF",
          "step": [
            {
              "title": "Wat te doen bij voedsel vergiftiging",
              "description": "Hier komt een ruimere beschrijving",
              "action": [
                {
                  "code": "LIST",
                  "list": [
                    {
                      "title": "Blijf kalm!"
                    },
                    {
                      "title": "Leg de zieke persoon neer."
                    },
                    {
                      "title": "Geef geen drinken"
                    },
                    {
                      "title": "Contacteer het secertiaat."
                    },
                    {
                      "title": "Hou de persoon gescheiden van de andere."
                    },
                    {
                      "title": "Laat het licht aan."
                    },
                    {
                      "title": "Verlaat het lokaal, controleer of alle aanwezige leerlingen ook niet ziek zijn."
                    }
                  ]
                }
              ]
            }
          ]
        }
      ]
    },
    {
      "code": "VVMP",
      "title": "Voedselvergiftiging",
      "description": "Zieke leerlingen",
      "version": "0.0",
      "updated": "2010-01-07T19:58:42.949Z",
      "role": [
        {
          "name": "Stafmedewerker",
          "code": "STAF",
          "step": [
            {
              "title": "Directie",
              "description": "Verwittig de directie.",
              "action": [
                {
                  "code": "SMS",
                  "phoneNumber": "0486788723"
                },
                {
                  "code": "TEL",
                  "phoneNumber": "0486788723"
                }
              ]
            },
            {
              "title": "Secretariaat",
              "description": "Verwittig het secretariaat.",
              "action": [
                {
                  "code": "SMS",
                  "phoneNumber": "0486788723"
                },
                {
                  "code": "TEL",
                  "phoneNumber": "0486788723"
                }
              ]
            }
          ]
        },
        {
          "name": "Secretariaat",
          "code": "SE",
          "step": [
            {
              "title": "Verwittig de directie",
              "description": "Hier komt een ruimere beschrijving",
              "action": [
                {
                  "code": "SMS",
                  "phoneNumber": "0486788723"
                },
                {
                  "code": "TEL",
                  "phoneNumber": "0486788723"
                }
              ]
            },
            {
              "title": "Verwittig de verantwoordelijke beveiliging",
              "description": "Hier komt een ruimere beschrijving",
              "action": [
                {
                  "code": "SMS",
                  "phoneNumber": "0486788723"
                },
                {
                  "code": "TEL",
                  "phoneNumber": "0486788723"
                }
              ]
            }
          ]
        },
        {
          "name": "Verantwoordelijke gezondheid",
          "code": "VB",
          "step": [
            {
              "title": "Verwittig de nooddiensten",
              "description": "Hier komt een ruimere beschrijving",
              "action": [
                {
                  "code": "TEL",
                  "phoneNumber": "0486788723"
                }
              ]
            },
            {
              "title": "Wat te doen?",
              "description": "Hier komt een ruimere beschrijving",
              "action": [
                {
                  "code": "LIST",
                  "list": [
                    {
                      "title": "Blijf kalm!"
                    },
                    {
                      "title": "Leg de zieke persoon neer."
                    },
                    {
                      "title": "Geef geen drinken"
                    },
                    {
                      "title": "Contacteer het secertiaat."
                    },
                    {
                      "title": "Hou de persoon gescheiden van de andere."
                    },
                    {
                      "title": "Laat het licht aan."
                    },
                    {
                      "title": "Verlaat het lokaal, controleer of alle aanwezige leerlingen ook niet ziek zijn."
                    }
                  ]
                }
              ]
            }
          ]
        }
      ]
    }
  ]
}